Training time [s]: 1:9:34
Optimizer: CMA
Budget: 1500
Number of solutions: 5
Number of episodes: 185
Evaluation iterations: 1
Number of iterations: 400
LOD: 1.0
Noise level: 0.001
Start position: (-1.8700000047683716, 0.0, 0.3100000023841858)
Terrain: BigBumps
Hexapod: Default
[23.68502144831875, 26.037331330605582, 23.24231939882684, 31.1627871044156, 32.754565478960835, 15.89343937659341, 36.2886246283073, 26.237346986512495, 23.998182484016507, 30.445222838283797, 28.264063823279617, 23.897061170099246, 33.60172644071924, 30.340029381036764, 27.004344971662103, 28.4618392852853, 1.736858676790034, 26.851707565654216, 31.72935792337301, 29.254409061825687, 32.90721513155297, 24.97634070833228, 27.373971251979512, 25.855063294626984, 37.497980450136374, 26.361983328515926, 31.238591840426146, 25.2748069693815, 31.789316134691276, 21.19670663385829, 25.179768865634635, 24.160381271017023, 28.701005787781753, 22.632172111341468, 32.37856353088313, 25.029374112543184, 23.09332684174976, 30.348845081317016, 33.26767126806055, 29.327707984333863, 35.89912612224647, 30.320683309625366, 28.78613720383171, 28.760135695625188, 20.02931018337634, 35.66691541641421, 27.094383807233466, 29.868917223097363, 27.425903204674917, 25.77990513533124, 29.998316537496102, 27.626709298348267, 19.33853131804387, 28.45867894035331, 20.93005549886296, 27.77486269388358, 25.49067029588778, 21.14401143360819, 37.58104616983796, 29.776457473873656, 37.523989786879056, 26.266291408931977, 32.70451795550806, 28.32928848710509, 20.844116684272873, 21.043934631348613, 30.234290488034535, 27.586317750181102, 18.679178631294025, 25.71910065551691, 23.740613064125412, 25.509299952898573, 28.458392247832155, 31.363567397835748, 21.146484106821752, 30.16017830799769, 30.106071316370596, 24.18276538592758, 34.940023998537136, 23.077383609576497, 27.44303991220679, 24.88738637243987, 9.151562582678407, 26.238361515830285, 27.632956421217475, 22.900233548795065, 29.451213759776948, 29.674345348327734, 35.51956349706991, 29.342762074888913, 23.7498377091757, 34.34623754427387, 30.169925573257604, 24.330488067698496, 22.17926054516445, 25.7990696277523, 37.95868073595402, 24.627262718110437, 35.43415143633029, 19.312011083358396, 29.630234320067107, 29.403345549888144, 25.261582552294104, 28.013280800874497, 30.162025318770574, 28.168999819989683, 32.15283397939456, 27.045389943502222, 26.575520520068107, 20.988179452331792, 20.27209420986251, 27.17983232289974, 30.21269165961536, 28.955404376381672, 28.6300190192917, 29.07164831641024, 26.960604054743094, 29.500931842951264, 30.42262916508762, 26.245246641654763, 25.299754116156794, 16.79748361632462, 22.132167851426686, 24.68518014995424, 28.010007142094036, 26.62505623840658, 28.231970714545533, 27.00780271578528, 26.78882908353719, 28.911105592446933, 36.76421471058885, 25.670548538210994, 34.45138131696812, 29.5519133209651, 18.700552249572738, 27.75092903946196, 15.922587344544635, 27.9777434071298, 30.45301521626844, 25.64423084754258, 32.47790714118402, 27.854579990299914, 36.1408366822495, 29.70868299308404, 35.08793201095215, 25.980948145766426, 32.8865200155329, 24.51780467553604, 34.63600184123542, 25.821395523124284, 35.440586496595515, 27.233416069334783, 23.664296429896407, 23.231561963424273, 27.553228822496074, 28.338323911604743, 22.577393572130852, 27.778147934084814, 33.980874875093214, 29.513577618153796, 24.10559177371147, 25.665713811289084, 32.12954738076471, 21.298906376961146, 31.686540620805577, 28.874014284855594, 33.43917148410318, 24.373338058848894, 19.312942637689382, 28.30590272444917, 27.78682162834269, 25.71387195326036, 31.912679340337387, 27.479386022782734, 31.449490817000935, 28.56146361115206, 32.620666299691, 22.744079718176465, 21.621276705129088, 33.45094369807354, 27.727852848345147, 24.75235998311394, 23.724080733817747, 25.95915010682025, 30.018548043924792]

Gait Policy: None

Torso Policy: None

Leg Policy:
Name: BigBumps2
Number of parameters: 9
Layers: [8, 1]
Sigma: 0.005
Parameters:
[-0.0030926179525073835, -0.004944787888936401, -0.003501718242882035, -0.002804192892226194, 0.003723875075936711, -0.014327712890483513, -0.007124563773264291, 0.003445776767345188, 0.009112785178529668]

