Training time [s]: 7:43:2
Optimizer: CMA
Budget: 3000
Number of solutions: 10
Number of episodes: 345
Evaluation iterations: 1
Number of iterations: 350
LOD: 1.0
Noise level: 0.001
Start position: (-1.940000057220459, 0.0, 0.3499999940395355)
Terrain: Rocks
Hexapod: Default
[25.51794094549447, 17.936189930409583, 14.787682528357182, 17.66340725993957, 28.74649026564791, 19.61200921287978, 28.334867367596996, 16.240090941136, 14.458461588732252, 24.19072357510788, 27.722216201132188, 21.231873401212784, 15.136043096523878, 18.356274827505267, 14.188530552206691, 19.790255860280762, 27.97494733035574, 22.38161069121876, 14.716918886990081, 23.190127029598177, 31.130737552761687, 22.734779816489088, 15.163851030720338, 20.91508836868508, 28.455399973731204, 21.54347100040723, 14.391462502301092, 19.018706727374752, 19.668392798177177, 21.62022132728384, 27.020264346547833, 22.532099286538976, 18.757735226605256, 16.81281492161499, 27.756208167475414, 18.486877735844125, 25.92196867189665, 20.802394539534156, 33.131176680049265, 20.64375630475066, 29.127792234791915, 17.489956160286873, 31.068204712286345, 21.947265196107395, 29.471191474920207, 20.199513070491154, 20.67361794210334, 19.78147348961125, 15.53497504375513, 22.76128700931675, 15.197417029754348, 19.09786009505381, 26.92530293464762, 20.96936228287768, 14.512350615215759, 21.003235843027618, 14.590809403791734, 18.581575249738385, 14.670127401847006, 18.266906279774396, 27.80888945202804, 19.902458322523533, 31.346335909068785, 20.178509306768653, 14.081477717575035, 21.921342025463513, 17.56603317474831, 23.647814237786168, 16.698841125332372, 18.71710488127828, 16.286526609989934, 21.49741686383664, 14.799840873926613, 20.83462192318639, 18.594912578137794, 20.929336291355717, 23.855596313487645, 20.75567394843558, 15.817972331860517, 21.82260893297584, 29.908137416262065, 17.95555327884839, 23.841411254702024, 21.799548654174497, 8.216383771421393, 18.377743303792407, 14.752953189337608, 19.79775642043837, 15.36274612034893, 20.42069792219028, 25.33631795830084, 24.4575605861859, 27.600801086711364, 18.674378252884363, 27.5978980009965, 20.370467003802947, 32.72632067343689, 16.46113194373274, 28.20729167187981, 21.7675390496861, 15.093435803243342, 19.95195437560682, 15.638794310232651, 21.704499514774625, 14.45652248927157, 21.275525308294412, 15.192181805664829, 19.13899950185758, 23.001893041737713, 19.83445790407312, 25.310459322033424, 18.306587342506358, 26.21291914014866, 17.541336761320867, 2.2427512930932405, 22.198700648507298, 25.023898887661908, 18.692411255556287, 14.433333290895959, 20.850012084711032, 16.34028956075013, 18.429478114058572, 26.163867995028987, 20.25310316611532, 15.10762761215818, 19.03854795498298, 23.36658924795706, 21.016300512092336, 29.979778979681836, 20.48961931989806, 14.810756145614503, 17.305254699529698, 30.349978043910074, 22.061838832719907, 15.084023901946992, 21.654630280514176, 27.704628552192553, 19.05362188426003, 14.832831422910788, 18.859013949333804, 14.138516390903785, 18.331566087799427, 12.772608224887414, 19.524405056548094, 23.745296616399145, 19.028315547169036, 14.698381085655232, 20.54815929367898, 27.374999726545532, 20.794865048383503, 26.759422706621994, 18.36721862085686, 20.333341125617885, 19.261214679738845, 25.05923215490303, 20.991487529835194, 15.176994449988284, 18.57700105296861, 30.654555622827935, 19.40862297854043, 28.859160356023644, 19.750366929572557, 25.46571098382375, 20.07379372155148, 17.89238934267932, 21.911972848833035, 14.809793787814522, 18.921212604025033, 23.939748843008008, 20.232968806197952, 15.062898453358704, 20.86872848106521, 33.46976291416705, 18.115908127350274, 14.243086686119884, 19.46203172303096, 29.01345787043035, 18.451372991414523, 30.07981696929288, 19.852578147781067, 14.530879138470079, 19.40257773846642, 18.35390432449974, 21.191412627340036, 29.250443463360636, 20.273071141194084, 24.19472896728215, 21.107819101714092, 15.002944179789552, 21.068761839201127, 28.680678918320677, 22.285995979558287, 20.869262818011514, 17.31481606337744, 23.323667863056627, 19.620423728196464, 34.75883253449088, 20.621802940900263, 22.194539136071185, 20.597071486437482, 9.645302688116711, 21.55186960945463, 15.38019902596459, 20.788547114167745, 14.664763168206093, 16.724023387489897, 15.061462737762971, 20.79980993709362, 31.01517226283923, 19.018827697686376, 33.9126931259874, 17.11982893101106, 23.408809089193078, 20.938817058477063, 24.695240012872386, 18.795579428003307, 28.32500086516659, 17.35093488722567, 26.49692542256438, 17.851109703737, 14.7987485738744, 20.721912098146504, 29.35838488653669, 18.892685307730115, 24.553146441155715, 22.37964878898308, 20.649451986238883, 22.786536164044513, 22.958690046714963, 21.629410062402947, 25.57903650798184, 19.617948977398672, 14.560084789659454, 21.871768488958732, 15.084802404485607, 22.340395713380428, 14.33785064949137, 18.297133557338856, 15.615623748676228, 19.091396077167612, 25.059410995426042, 20.57616424376611, 14.166134350946828, 18.52485296315124, 23.328227821363406, 17.9544175150595, 25.088836483985613, 18.930601948901636, 14.650749019467321, 19.494891008996383, 25.672642638559708, 17.13021696460138, 15.392239039087162, 20.214598776768945, 27.93383669392657, 20.37314003986817, 14.863493423519017, 19.392250033483016, 15.00910390177802, 19.513125201637983, 30.501994680074212, 22.356641093049188, 32.30925050692812, 16.832045459095724, 14.171244943886387, 20.63391584494169, 19.825496695591653, 18.743884053184367, 14.49436258677368, 19.29564696879681, 26.203408446903136, 18.040553999950752, 20.75220887555783, 22.38942302805214, 11.051874647078925, 20.080295136416996, 14.977482440327053, 20.817186080378512, 14.402529260211933, 19.97040724025378, 14.9152414725063, 20.940396857594813, 23.345977116391396, 19.89586484256632, 14.900429048096564, 20.17206770978418, 25.49171246507055, 17.87880540161717, 14.13906493256127, 21.92212788361275, 19.88110126031818, 21.440975840220894, 29.236738548432974, 17.024311029622574, 14.874802378133813, 22.58362621078332, 14.180741816450936, 21.144351660514406, 24.353797531266896, 19.88839696112912, 28.022658040876742, 20.0560516970034, 14.499831358014452, 17.42922994514262, 25.983261628988952, 19.840892808226027, 14.65265465157448, 17.74198367475377, 26.97636326750632, 18.74266382692955, 14.314015392966091, 16.156783774194412, 14.411566446735229, 23.338919712780626, 15.16895426504308, 19.774786025276022, 25.197411202758246, 16.950379627238906, 26.108970203735513, 21.388310688123816, 30.941988650384197, 19.414917107765167, 15.473947075909217, 19.375761122893124, 14.54835720536771, 19.749642594312387, 8.65507561984565, 21.51670912923995, 31.594721551761506, 20.929752416099927, 24.152323403516384, 23.178111899941005, 14.416518209401916, 20.836783953757067, 30.112464692456875, 18.832758887172353, 14.165246100068195, 19.29004085891979, 14.389970642045501, 17.896098579108205, 25.781174992978332, 18.719288200350483, 26.72339200719769, 19.769089318179525, 14.184460646598176]

Gait Policy: None

Torso Policy: None

Leg Policy:
Name: Rocks
Number of parameters: 9
Layers: [8, 1]
Sigma: 0.009999999776482582
Parameters:
[-0.021815998291211, 0.0016953253006744603, 0.04790132294968762, -0.03353340770807359, 0.013420254017526853, 0.0065058338960919905, 0.0004551085502536661, -0.07985618355444712, 0.005623929292228241]

