Training time [s]: 8:23:35
Optimizer: CMA
Budget: 7050
Number of solutions: 20
Number of episodes: 2257
Evaluation iterations: 1
Number of iterations: 300
Noise level: 0.001
Start position: (-1.2999999523162842, 0.1899999976158142, 0.30000001192092896)
Terrain: BigBumps
Hexapod: Default
Best training score: 52.744638043948854
[-10.793102261168562, -1.163993443097294, -0.5938425691020885, -1.177998697020898, -1.0842875313645792, -1.4645445931363663, -0.5325225171245481, -1.3247770199576157, -2.3854659918854195, -1.6346306652686617, -0.8104400800652953, -1.4746391479074918, -1.752442475783655, -1.384296818133869, -0.9099146611256992, -1.593667142629488, -1.5719911684338066, -1.5990267901982231, -0.7909219699483157, -1.8235278601388907, -1.4999975709723925, -1.893222965380455, -1.8082076557119233, -1.8288034001209037, -0.7659917304649255, -1.8248360129954615, -0.7251131483390352, -1.6761522120379866, -0.6355930201557864, -1.7001559119472502, -1.0059778966008088, -1.855323245272137, -0.8086366093859231, -1.719489716643396, -0.8967543484494841, -1.8071762142891727, -0.981900214695309, -1.6743212245108594, -1.3806644227218614, -1.2921686200181015, -0.8066131129647945, -1.6039068013613194, -1.2307136001597943, -1.738568482965243, -1.2915223580988364, -1.4499468859797813, -1.44051967022718, -1.6852290693226082, -1.3965583566114217, -1.6819520675012452, -0.9092236346707324, -1.8008455735726154, -1.527110921985447, -1.7211282543747295, -1.8582311309199664, -1.7885664431453505, -1.2314741822041755, -1.8497856546886324, -1.2293893510819696, -1.7823425586808894, -0.8320056079463929, -1.8348056751991808, -1.1029999395236545, -2.39171258442474, -1.3782222850497303, -1.8181141523382762, -1.346153655382335, -1.8377284321919707, -0.0845976907899989, -1.7912463112702546, -1.1352923577417686, -2.1360559759787705, -0.9138236422056314, -1.9445431293170234, -0.9733231487695546, -2.36923061290546, -2.197440793587421, -2.157369581039485, -0.8901436160623412, -1.4399756162166377, -1.0277757574824475, -1.7839850122304555, -1.037586803560953, -2.1108328135150334, -0.7296134897597983, -1.5743422365658764, -1.046915175657483, -1.830313340779265, -0.8067555135119577, -1.7528427213143918, -2.5756306975504244, -1.9434342826291229, -0.8953061100889319, -1.740285016441209, -1.678700277025253, -1.9663229747496858, -1.2651048862366894, -1.9581480722280482, -1.318845428699126, -1.5895420074005762, -2.8767203916519817, -1.7708990604571748, -0.9323110025011839, -1.7887372494238403, -1.5444217446652453, -1.9950911036562033, -0.5598944529060959, -1.9986664591406846, -0.9211840764917203, -1.9502972481061984, -1.7532150485583258, -1.5333402658801782, -1.0237303861897535, -1.76987724805829, -1.3712101420849487, -1.9420876535710572, -1.4217613056549023, -1.5779457390991662, -0.9429874542936774, -2.188609976757934, -0.9309549406993312, -2.216775157512533, -1.1264813690065703, -2.0505567546889307, -0.8893704861893224, -2.1843436794984483, -0.1427470169231817, -2.3828872912065875, -0.45053070807155343, -2.6178796504212247, -0.7639940144974697, -2.361158708439203, -0.31025369203081316, -1.839590838993028, -1.016468778595098, -2.0018435963821593, -0.7048189271874052, -2.18919145782699, -1.1531380507918807, -2.2749154145577006, -0.9297373388739397, -1.852572525169451, -0.9860411708042998, -2.3251526014121002, -0.047279855566190465, -2.1753604132267546, -4.540100486841876, -1.7733728161573126, -2.2986679148950753, -2.085032124034639, -0.7358662794177168, -1.8306697134738568, -1.5450780797139743, -1.8784875906820555, -1.1614823761049524, -2.3641536045548395, -0.028726379909302158, -1.8083625081581254, -0.9749192960816531, -1.3902890709336249, -0.9805286689275969, -1.9029209664785427, -1.5643734738286161, -2.1360776095928236, -0.9166370994227951, -2.3601429638855587, -1.5617595813292366, -1.6968117848682311, -1.7245742711930954, -2.144150426023871, -1.2377706863396725, -2.93549410144404, -0.21233129048806715, -1.5220336146843931, -2.310750254718461, -2.383847574314724, -1.7528182347206864, -2.261935427873623, -1.9303820341918634, -2.3485941498530822, -1.7667652781616248, -2.265623124799181, -0.14619281485922409, -2.1935945849366854, -1.064655181727848, -2.3847807245512405, -1.222746008145399, -1.911778050853486, -0.5380953806941672, -2.128065604517731, -2.396330871492761, -2.178335243589963, -1.6037772644962152, -2.6097770067453743, -0.6237937234135673, -2.3192609063422944, -0.8320743476195167, -1.7902542138285213, -2.213659766282846, -1.7789604208537733, -2.2587832164642148, -2.60680017272655, -0.7708530369274488, -2.3975273181956234, -2.5273059446843176, -2.189083317459055, -3.3588061288261937, -2.4387205552135898, -1.4786896993249639, -2.4797253533379697, -0.3031401431112054, -2.3243906670072176, -0.9757411233550275, -2.4437506671226332, -0.37377126740612043, -2.2524480582084108, -1.3346187235329952, -1.4016401217319001, -1.930417780303042, -2.1250342042747787, -0.5746557563502246, -1.883817508483127, -2.188047191399035, -1.5898657149490587, 2.9488702913097087, -1.7736129425257776, -2.88239091111969, -2.4394211978720177, -2.8831956881518295, -1.1493507173295385, -1.0620594261874285, -2.57386942828924, -0.7991194173328124, -1.4173490394601787, -1.1630506905977147, -2.4499367243059487, -1.1728750071769032, -1.5429904717197251, -0.5792344934182462, -2.3098536875462057, -0.4134421502961853, -2.360471357594684, -2.37801278407674, -2.257058831163516, 0.2800762435112194, -2.3411080889069082, 0.846418166985043, -1.9523780046165449, 3.0044952817713173, -2.0154153997002044, 0.8148870915229837, -2.0498363445310868, 1.1136308762887044, -1.3401745490676886, 0.8083786859160438, -1.3026140476905224, 1.2978835360690073, -2.489597031226711, -2.0384485466086155, -0.42161366309465187, -5.71192598058135, -1.5130444225715822, 0.8615406377537169, -1.5453520883850747, -3.9302471381054116, -2.009344881122291, 5.208390398034574, -0.3752177902107584, 2.3736682318806346, -0.7768497212515169, 5.47795033226332, 0.5275519402151488, 6.429102349548467, -0.13118758314115592, 6.508137158858764, -0.09117782249591708, 0.931964406146008, 0.7139076379593478, -0.31114397050007314, 0.4784180539261887, 0.8280826624825983, 1.6178212851296407, 6.598499488636713, 2.4661262306842926, 5.845037837097566, 1.5999419189004667, 8.458261989959436, 1.9625082587966074, 2.2391833484384787, 1.44875022248333, 9.81656388607194, 2.585863147414712, 0.3530549081365041, 1.9651851173418564, 5.871029841940462, 1.696080834243439, 4.150889729124655, 4.219537720020072, 1.1799218396043583, 2.031979519729295, 0.2895047687432801, 2.2522894672762312, 1.8320586721573433, 4.000161895765729, -5.328723005801884, 2.834542427146929, -0.4422087958947092, 3.9324588311003246, -3.445065698572292, 3.64298060445154, 7.304942617725041, 5.759227170611489, 2.6159397958875, 0.793010389715602, 6.437235324489871, 3.408523388531799, 13.967872652441553, 3.3747097746433368, 12.36555859649333, 2.1416890282248944, 6.261853432129019, 1.9268256053007722, 3.4470714075904967, 2.548351022034492, 7.787461773495137, 2.1122083294274576, 8.338819353044116, 4.030942103308745, 1.5474079806312222, 4.496897853934692, 3.5425459276319726, 3.2372262670087486, 4.439523362808359, 3.984327180836278, 12.951359772484981, 3.18823397749143, 5.853786183103846, 3.367966003402408, 7.7946288743774605, 3.8278610284540484, 6.029173698168398, 3.751113144968108, 5.83492374129991, 1.6245792620126693, 1.9281256441078256, 1.8251802993962343, -1.3588885750916657, 2.9667913096843614, 8.385887580604212, 2.873638366847275, 6.521489979835032, 4.5183435348630985, 9.76057464806865, 1.5489996921593185, 6.819462160362278, 2.4615130156827374, 6.5891256528106785, 4.530569909561837, 9.903589163273853, 1.8090463940217405, 6.633283042662778, 3.799649895361109, 2.4578091357294967, 2.4534198444081574, -4.566424736797816, 2.5709212955919933, 6.551469125188577, 2.8515688122190572, -1.2343242155600278, 3.9156985775855753, -0.17817072578755333, 1.577649899503464, -4.765686046070862, 4.107130030394347, 7.191122063827039, 1.5029881014681288, 1.5028515001385059, 3.543922718887079, 9.58253679833395, 4.284901088351875, -4.249043288596626, 3.1503644625668805, -1.375473746408093, 2.8851980068798153, 5.592609772326833, 3.158040964011131, -2.994946065212976, 3.185709688235675, 5.708281258185023, 4.2470314675672665, 0.03939764559919001, 3.020135215006234, 5.871209613184759, 2.8745790575200965, 1.8882701109648203, 4.136468402468514, -3.9293936998018233, 4.848986551543736, -2.4273274023466587, 3.03371334046401, 0.391656629187362, 4.260067372822293, -2.1898985505746653, 2.6917648380551418, -4.512952991764205, 5.268962750135321, 0.8639657541636259, 3.5453657703766814, 7.952094864442935, 7.261051334339522, 6.883447851989356, 4.687683319993692, -0.10057082079991964, 3.561916898135043, -1.4175749231196146, 3.2286713905313085, 8.427351729827777, 1.91297798451893, 6.504030425713005, 5.030475138901434, 6.418759282483551, 5.016665282185567, -2.732031735795678, 4.948181888111341, 5.88978778675631, 6.029429984751959, -4.063052951883875, 4.251833516972356, -2.674671186303882, 6.484757201618985, 6.524849753278565, 3.728127500865907, 5.365000045891266, 4.4010857840426905, 7.591626216336593, 5.588901050240202, 6.715276123869734, 3.986075091539223, -1.8876621543732375, 6.05184367594862, 7.035123944139735, 5.673731378402094, -2.711234245484306, 4.4280087384139435, 5.656952456531882, 6.44996188191557, 6.432805236797579, 6.307293517329968, -2.0195781510626145, 5.502128001113419, 9.688593297486985, 6.178731710138103, -1.323055724086267, 4.890978925762388, 5.448664984506056, 4.329395201087772, -9.419613950510318, 5.996588975451722, -4.130608968295722, 5.323058955441402, -2.4771411056375845, 2.739587345071248, 0.13883604552621254, 1.0983738084668673, -2.8056464962420273, 2.2418321768071396, 0.7330320757981825, 3.2319594895140313, 6.23437521448732, 3.6924634108763597, -1.8873385256047348, 6.180792800891673, -2.1834756693058512, 3.482405322798022, 4.655378350911726, 6.116569269517706, 6.435157596221895, 5.747967385330971, -2.5222548663479687, 5.0612765941055144, -2.989099811387397, 6.45933386675293, -3.879066329384125, 3.3458115019856995, -4.1525464350356955, 3.080684112520494, -5.479401594754037, 4.693364745180374, 0.6218038159419104, 6.290930355834195, -4.003150066954768, 4.689936187744886, 24.872410467230182, 6.4713293856996525, -1.063482572328741, 3.0335662741216725, -1.9195356416032108, 6.351573454751207, 11.522775370428782, 8.452041874423049, -1.4498035990568687, 4.231576407172545, 5.078311418591175, 6.361406781107965, 9.215852843413364, 7.3227712690466955, -11.436597804793468, 6.777709651406624, 3.5271346893277276, 4.853462382057071, -9.833252488938836, 6.790219651556693, -3.850284324396709, 4.535685234857469, 5.4479615178233765, 3.0868131850017093, 10.61758591543451, 5.822537685715923, 5.822217739146361, 8.203557987310683, 5.099644352287756, 4.6003656280999605, -3.415807224278203, 5.86254994812865, 5.718510182034072, 6.356457065596315, 5.016227136366902, 7.355217980342395, 6.232377298974566, 7.033342903707099, -4.270658822838512, 5.818635848431896, 6.090009387269578, 4.463112217500699, 2.265625724871839, 4.313534263711523, -1.0526900410576543, 8.028572188905478, -0.4637968235597827, 4.215006792673597, 4.323901176105395, 8.76583408483081, 3.588667867400283, 5.376550936492242, -5.431626626144313, 4.484933788360487, -2.211476900314412, 5.989555019395143, -12.566440629603031, 6.576559390859424, 16.311449845057314, 4.226544946237265, -2.3719251808717905, 6.787686894703107, 19.874444357026814, 7.311876554192443, 9.729791936582744, 8.805975983536381, 5.879384993300331, 4.353329527877556, -5.854823258975581, 7.017340845858826, 8.31671913884744, 4.938094523754945, 5.698816554100967, 5.718723442510724, 14.011878247931131, 9.41816860309579, 0.5268769486241593, 8.504766401575932, 6.1561527088876185, 5.598381304231053, 6.2080177461177115, 9.745126105779088, 6.323459641719233, 6.865705531908278, 1.0370265928126408, 6.858501788610728, 3.1366103687994453, 8.983668865319109, 1.957617942533616, 4.156399379243952, -1.189196604572674, 4.4177413447216285, 4.337705010361973, 7.974883353814958, 9.490819819951067, 7.817063461735236, 24.932576663042596, 7.770709779499721, 9.615316009788943, 4.287802416774096, 10.614421684288406, 6.4013451795559675, 7.399395589572891, 10.848956323958813, 15.709911637119838, 1.0856789452340938, 17.842166685474435, 9.207198638418197, -4.964492875281447, 8.536677347818793, 13.423597816130432, 10.754917818802625, 14.116547458320593, 6.602262513402257, 0.002422080322002973, 3.404413796922095, 3.133236618300623, 7.732817495450247, 13.945752222352908, 5.196205647280644, 11.343525756481576, 3.6988631695090435, 7.732426769284104, 6.6288996736003, 16.0440022675289, 6.58796829183824, -0.5984211581537049, 6.052543582715243, 9.346644540380726, 5.88843271889128, 12.80716767395564, 1.953767925157314, 4.454827990949559, 7.644515630958509, 18.882252645247934, 9.546607681737495, 15.639003368542232, 4.029999113910776, 11.154079260939291, 7.328739806853522, 1.7604471103292345, 7.421357141638694, 11.768362442724062, 2.923143895940041, 8.813802493207353, 7.371869038621206, 3.2293291378409883, 3.191736859521911, 2.5982306558076336, 8.19818489525964, -6.15929897512191, 7.074148076398269, 8.08177168419199, 7.554522931000072, 1.2293424443167433, 6.9517371869142135, 10.362849205427947, 6.974646165492706, 17.603557821389167, 1.7801852677926315, 13.487107798562683, 8.31762988715599, -0.30255744043761346, 10.835654778841382, 12.96880825684279, 6.820378623849504, 15.676050537332193, 7.562216854755701, 17.91136840286132, 4.465435898016284, 8.119530065842378, 7.655549157619911, 3.2797966690290323, 7.539771791109584, 18.055496832347913, 8.592599680220204, 8.490343913796188, 8.808943056020064, -0.19456490660711934, 6.633663517641516, 8.627409835030695, 10.723924995383907, 11.537007370664753, 9.097076994320268, 13.454023803669719, 9.290018194652985, 23.1203388366616, 10.023763419868015, 0.7695488642683932, 9.66880488916796, -7.318209148002003, 8.314081012477404, 10.473905998951698, 5.583447032495136, 2.160660354002898, 10.503267763052094, 5.78584860516736, 6.624249022097184, 9.516872934343931, 7.374596534890813, 15.325857948527291, 5.20916246775743, -1.8236177255220487, 9.24974837031803, 12.06825682233033, 9.05210615604214, 21.791776265726227, 11.006585755761922, 7.642800085008161, 4.079828359480163, 11.849433104006414, 8.969393014675335, 11.81669656623106, 8.211574748454385, 6.534234137868994, 5.385503207418161, 18.710908058689526, 6.440040811799756, -10.892884673414342, 9.44131984735581, -0.3400283421072592, 7.497464293576935, 15.92934263360954, 9.268340667676581, 23.936572709331113, 11.908358552433766, 23.866920759484024, 10.67659558352528, 10.874517012440258, 6.073496758823203, -0.4870598784492115, 10.833051194319369, 15.50485593141013, 7.3703124935772735, 18.903313966484376, 2.5781677626084765, 23.491578544470826, 7.070997671203273, 11.181285412780795, 5.0730777865096, -3.3754987310581295, 7.347436893133827, 9.709279928642673, 7.840825907131666, -3.6479110702990343, 6.961673212812, 13.977469159447038, 9.231277760833644, 13.943628774179391, 15.39109472737557, 17.11907395151993, 6.831646900184197, 11.54835352152402, 7.067910487104925, 12.601444285967627, 9.9181542713799, 11.049951043981887, 8.265254644400827, 12.71422970006669, 9.024925383461042, 14.887043449463583, 8.685151849478084, 2.4187241995050233, 8.018868363044318, 9.05968224788767, 9.977639675915931, 1.6919128296481905, 8.744857006881784, 13.08669310144846, 10.164018650320092, 3.789603190212188, 8.47136024654457, 36.487437991957606, 8.61980368820018, -1.6598619945868376, 5.337751459755545, 15.80345185816935, 7.147949281253597, 5.788580316891581, 10.199468360503397, 6.598202476687512, 7.2156819183716205, -11.485130126813331, 10.768733950862964, 8.054836391830502, 11.787906223827845, -1.0654457900808814, 11.251292354377254, 5.087218686815315, 6.276104053137109, 18.643970917257366, 10.70433733278215, 1.7182638558285068, 11.708633536923163, 21.043003236106784, 7.6503488435760385, 11.097223578264614, 5.792391748556775, 34.307517800724774, 8.289106810520819, 22.633658146801086, 8.101950601080471, 12.760769610083653, 7.481804624450095, 14.572406885335008, 10.740631794427465, -0.9815161519129942, 11.943738352047927, -18.304162920826045, 7.765024754721141, 3.7753434832949537, 6.0448480348439375, 10.958189449299082, 12.564916493961533, -0.011866869205386266, 7.731741448683826, 1.3864747673553692, 8.106972436486036, 21.583484294767487, 9.154402220769873, 10.993606892112325, 7.23207538109894, 20.61823049680504, 11.612177326133557, 11.09563881982089, 9.613088730899616, 19.13782362399903, 6.767173760326388, 30.496592232348874, 8.322146910852126, 9.745108779194613, 10.989946772398884, -14.718011934413184, 4.185004419115976, 0.1370830079872114, 6.929587303587023, -4.533721347639508, 5.350258681069965, -30.371076273279197, 7.5452819339441275, 6.485629198467067, 12.125516518174225, -13.446802732085438, 13.80299642198818, 11.772882197114782, 7.35341264539858, 25.732985493960907, 8.326713025959911, 1.5504533971209453, 13.188239201563254, 1.6491896746797674, 11.238536796396229, 15.85608898820598, 7.658068216832598, -7.863441432074316, 11.720005072745241, 5.957540356700973, 9.002229229909835, 13.538761040913037, 10.215406655087119, 9.505380429340196, 12.460457968299334, 6.696256467466844, 8.338097709457056, 16.491559663212445, 8.836640230572169, 13.07148284634938, 3.975637322936817, 14.94678814173925, 8.574959251937708, -5.791037277335661, 7.5927809173010985, 11.090039305978411, 13.415803078892603, -1.2886308014112227, 9.229122676067892, 2.7844070451153953, 13.143979286823612, -8.772292889155839, 7.6116038191746185, 5.194293292986024, 6.615058219191688, -1.3423643767541562, 6.892100190307458, 23.475208676750874, 12.70964081853399, 1.0592539351172672, 6.612094911817179, 13.034333013839648, 9.04211329544059, 23.639954227684964, 8.069590294676626, 17.4370612757519, 10.55115413954706, -32.660729903731244, 9.276317072869796, 1.2188686247155864, 10.813686989295181, 8.80890703404361, 10.78952986391763, 8.332157323317901, 8.387102141464892, -0.37900842862102935, 9.538514813392535, 22.324070029477042, 8.65853214070789, 1.3746968578995225, 9.094836448226014, 0.354806689604406, 12.48156794667943, -9.113620299171647, 12.623547405180625, 19.86771892905915, 11.747622143324143, 9.868271765172974, 6.731376280652347, 23.14166360353408, 7.458900493038418, -21.367303504643516, 7.115392712198933, -8.630243009253087, 11.005198787749574, 5.756227790464063, 9.906619970871038, 0.7859946811784737, 6.759055926151687, 5.778269682556936, 6.593318684588143, -17.130713664791806, 10.389963299310455, 0.8367573948203937, 15.307683723582816, 15.024226868301543, 12.24838786128131, 3.3092283473319304, 9.868094077683711, 10.65899205376552, 8.897233286316311, 12.142556423840098, 10.752896937751567, 11.14614176973556, 11.328554573735047, 8.970439988024367, 10.032347900814434, 8.552820691841099, 8.80670855169087, 8.91918102699809, 6.72551900182547, 8.100819358837464, 7.813300548300214, 17.9304816292134, 10.701676625274278, -9.17657647938183, 7.515986597798614, 23.274320419567367, 11.319249021864335, 52.744638043948854, 10.693700760950282, -7.031775289575193, 10.775420916007011, 19.088033902009286, 11.195339180675658, 9.244849418061513, 8.389205592550974, 6.934708276846759, 10.88678065633191, 10.03975009351869, 8.836151923373475, 21.113258709705303, 8.442468626353502, 35.777271025667815, 6.551155249447464, 5.70646152487206, 6.996811199241913, -15.970941522789355, 9.913253975045858, 17.539582778512415, 8.587077976138417, 2.19612748444006, 12.432763955942, 11.542555856896444, 3.1797666531764732, -7.92528613997859, 6.296215250308354, 0.708761505933889, 8.526329545874471, 2.509732985490484, 5.805675535580066, 5.966829491525698, 8.492161494867457, 1.7550330650199668, 13.10146493924469, 7.6845156713968645, 11.129865956482746, 8.871548382844304, 7.204966282414665, 8.774355021184142, 9.586940270779547, 14.41279706713387, 9.86947698320147, 14.60569513136945, 13.296830378611578, 3.0486277477279526, 13.692703311912837, 1.8461585675246392, 7.175671799143058, 9.169750636330203, 14.878088766377221, 11.174124459882762, 7.563428320498384, 6.624228088616407, 16.03210261218046, 12.96671210557767, 8.771798657019861, 23.509759073339147, 5.079860765888472, -4.1492287026778385, 8.570500655014538, 3.8132335025134774, 4.79665009923803, 11.392622609456527, 9.801003566363121, 6.358289861380854, 12.007553580404771, 11.400490966319238, 7.898184390635231, 8.81784738170342, 9.697429914480079, -13.518405355706069, 8.214774949619109, 1.205747879783083, 7.246727833191713, 24.904475178593277, 8.76926990736982, -12.03920967426395, 8.961851375897783, 5.321590203488492, 9.030799653218512, 0.5347122332682335, 8.308642785942045, -10.886558552879496, 14.74515136546852, -7.431180065370645, 11.004755744824086, 5.7997191733002325, 10.597482967866037, 8.397532865739095, 12.236531538711787, 9.43854936918149, 9.56571508856401, 12.575819573037215, 10.127951074508115, -5.814249452049591, 8.537939135685525, 20.31877045857817, 10.291553470189422, -7.877704295420208, 8.205982422312827, -37.451950700579744, 6.760787186966596, -8.035560904635432, 11.942280495638109, 2.5035519034619864, 8.557519229719338, 9.120310734896522, 5.6640105331536486, 5.9454765208898595, 9.169644881155152, 20.633469730454216, 8.162068789868531, 5.370607160170971, 6.858060533316073, 4.111177360931296, 8.274062213071536, 21.509833815770353, 8.220971061874979, 0.13443666155189993, 10.10008053913565, 14.742284197467406, 8.199109535683505, 6.891828305112722, 12.262223659590848, 10.006289488544024, 4.925920034709456, 6.1586148647587455, 10.28636438790906, 7.931710466576741, 10.360157112389276, 3.256087806779415, 8.939437195331333, 16.66268857912832, 12.063800550299991, 28.3032040320197, 11.593337453771149, 22.348536643199807, 12.763126728535674, 9.920699131293366, 11.982123302014198, 21.520847328335496, 10.877640129000664, -34.40374651228432, 12.41326108050161, -7.132707220800462, 7.274674968985266, 6.659737894769977, 12.401238982987207, -1.4114993723072724, 6.572810431862052, 4.9747768166122555, 10.018189621984407, 9.581169468840326, 10.093503600307187, 15.866672005769, 5.512841671272975, 7.741707845710775, 7.5020706171502685, -13.088677586265643, 14.942169370759633, 12.532376112720636, 7.93122047377297, 21.61840949721297, 11.213706418385907, -19.948734593278907, 6.144032123044485, 22.366236410581187, 4.919475929539163, 14.044114065640608, 9.707172740470433, 19.880460463833863, 9.220849542974658, -7.207765332504824, 8.127469017641845, 20.356742621900832, 9.681141849713018, 8.94453684601975, 5.45268135809787, 0.7522463631484371, 8.432600072555548, 23.489875712692175, 7.783968227848345, 21.746624350190665, 2.9945662382222267, 16.493499858276436, 8.087474498002468, 20.016157777772776, 7.782443757827528, 6.86457387688357, 9.70294232953713, 10.040785419446898, 10.882830046784964, 21.291775922670602, 12.06014212738689, 11.218832639104777, 6.097675865508171, 3.2468262744771055, 6.157580038027366, 24.667022048286007, 10.236409841127443, 9.080252919890155, 14.53468450142086, 16.53563413762438, 5.3615995418762115, 12.763559143075055, 8.736690370108565, 4.637539682359661, 6.942175471883466, 17.807471831042772, 7.721410378128878, 13.288732173270185, 9.053317874263252, -6.022408135813832, 11.182083740352205, 9.213742252555186, 6.681270076623031, 19.956614556517597, 9.583977409145067, 10.315401386302538, 9.59604115823522, 13.770985749336134, 8.66159410846645, 17.089349453054783, 8.51195692067626, 13.50349777449108, 13.411204112942215, 1.3746060869254775, 9.96555541735212, 24.07142471089342, 12.3304125176738, 5.035363987137689, 9.83910824862822, 11.742718621074333, 5.279128108402185, 25.242954294708497, 8.755881944896712, 8.92327670845813, 13.256276558882803, 22.38303941701696, 11.37614897686697, 16.75833719412749, 7.697422057435013, 7.326808315919088, 6.334427599492995, -8.07870198514068, 8.258125815058852, -1.0887216680337117, 7.6257674991873925, 10.647774931421043, 8.03808633415907, 13.502334676221132, 9.081892007855712, 23.878332227089743, 6.131750560535073, 24.233975719438675, 6.110111355748087, -8.58159575634529, 10.984389112841958, -1.676544110158578, 4.135558440173621, 16.173139087228396, 6.027048518658652, 31.29778702930643, 12.839498691070247, 16.24276096768766, 10.468259608790554, 25.49277544070134, 5.6733260505304965, 14.78106979455779, 12.33975033364101, 20.333112741532872, 9.408245931578122, 14.586239510781319, 9.400212158173828, 10.501420173328638, 8.983594898643405, 13.89400213194705, 6.049155743869604, 8.165384444747732, 9.497685703614362, 25.58466976207621, 10.238900645313148, -7.119965775983047, 6.569941985188018, 21.766977917518854, 10.605787432396541, 7.3514997993200355, 8.389266113090848, 13.311564716598095, 8.278588166147134, 27.179310189139613, 10.202085258655593, 4.81569071929156, 7.435560116139184, 19.324729028021103, 6.44753569482604, -0.5426185128385277, 7.787087155376686, 14.25389774479413, 9.348331959405693, 11.269705861566674, 8.30090315057818, 3.010134792285151, 9.271878315309618, 2.0436528877888107, 14.098927438861205, 1.9544049509257242, 10.16746988529405, 27.03958769255075, 8.80286909673259, 20.81711024766746, 10.780488900054454, 4.897721960979234, 14.413411920392965, -8.503924836975564, 11.129407157672514, 1.8866200673576676, 12.159083356191779, 22.275012181782337, 8.29912626712271, 0.2359306161964252, 12.861602694444699, 4.856208699307525, 8.909302415084529, 25.83651986766323, 8.93906116479515, 5.789483099646914, 12.734865705586026, 3.1473557354809794, 8.00973395180026, 16.87628744483364, 3.1414564540665904, 27.2378560272671, 10.717488862336504, 1.9543800446200073, 8.94666486240554, 15.469581915557242, 7.224928203543304, -14.615437110332874, 9.965226582098222, 14.979844525785538, 9.802193834241166, 25.17928912171473, 8.797278935897774, 6.090765140401806, 7.484272372951217, -17.971092988965236, 9.559790443396349, -0.25127155901567777, 8.320452396896409, 23.19467552565538, 8.930165399862876, 13.759660460743762, 7.344877428557718, 17.97452244799884, 11.129649407615602, 16.55625802777342, 10.828036031937238, -15.008261401003638, 8.882194119267817, 3.7330936305202416, 10.148733317501843, 13.154644875560434, 9.815139101758826, 6.353831448927116, 10.36157711046276, 21.225374399035452, 12.806359602387165, 17.609885899441238, 13.72108957800241, 15.026089756241513, 10.39228554959935, 36.10469954143238, 5.333351575215497, 16.879160169647665, 11.902438163234686, 0.392271656150857, 10.47017851180248, -5.17235040769636, 10.203361267596966, 18.375544147153718, 11.12787298739264, 16.461008940527208, 8.91090226635774, 23.837596959017617, 6.678044316384296, -5.225536927863688, 7.885811448107278, 17.917543107639844, 8.800309376706336, 3.284861115866885, 7.997445891406292, 8.781162226555928, 9.362050879934895, 0.5552976232557796, 6.839002149463117, -1.2669008878483226, 6.2642437965342115, 21.364747279466116, 9.81458415550187, 8.619004347502758, 13.217098227845625, 17.36278218316872, 11.775373035766526, -13.927419724132557, 13.071459736751596, 12.093460227127514, 8.984699110256276, -6.305459045767593, 10.066059166977466, 7.057131829318687, 8.99887993261358, -7.061323238840056, 12.506351726148502, 17.26616778026487, 13.506469863354587, 9.080848609444347, 14.653458798707131, 10.662415312657394, 12.927586308541356, 1.5816490234270082, 9.917874936068095, 9.129724861511727, 6.350936618170664, 13.369667694438698, 5.976579486960541, -0.339316099051171, 11.833199910310286, 4.630910644977219, 9.074434827100886, 23.307961366542866, 10.507367487604217, 15.45784876942237, 12.649860221687842, 9.640095652298188, 11.383402536054001, 15.619907783908218, 7.715244341863846, 9.576595934997144, 11.749426111652205, 12.908160235051263, 7.86260211399258, 7.213478019913875, 15.445299388739326, 8.88530096218371, 14.299197257177827, -20.709493840322555, 12.835923752917168, -0.66718249496398, 13.036260398165595, 28.06860536894883, 8.095775001392704, 7.449386805311553, 12.226527873140734, 11.918464025210572, 13.952275528268737, 9.792060976236675, 13.372712851597447, -8.500200371438098, 13.495154458289207, 30.937933324086025, 8.589857699463163, 9.372083677771943, 12.757595386483354, 9.646463026730505, 10.98821136160553, 9.60200563791614, 13.021771750384854, 4.192399126155294, 11.629013073689986, 6.153012937096728, 4.030610153998518, 8.720131254768326, 13.893340086258991, 21.79488293736795, 11.153989694601137, 15.294795840507387, 11.284633256971654, 9.048528079302923, 15.706300345692867, -2.850518742715266, 13.846768537979248, 0.7971713882398852, 11.60965926411445, 17.333201506809225, 15.459053657092344, 18.721035788874385, 12.733043728045336, 23.296601157210134, 9.031630073347952, 14.491037808086363, 16.122537170583527, 18.95734121150838, 11.788714835264715, 16.540550835971235, 10.41668359786574, 5.492315169145856, 13.7923175931099, 15.962894267607773, 9.470271695914741, 12.494540442012342, 12.857970532118348, 18.090764559872092, 12.813744890835963, 13.367726364017972, 9.218049611832194, 10.393690689779246, 10.704394305783605, 24.008773114704383, 13.367412666574577, 21.937336026051604, 15.590416594868504, 8.17138208195102, 12.257253531622574, 10.806246774557728, 8.941039766808796, 9.552625602570021, 7.850234093310808, 22.628623448315864, 7.847517153220506, 5.842073996280828, 9.828090585666903, 21.38130120649406, 10.042896579507303, 6.36490545971535, 9.805722888457423, 12.689177317847331, 11.558105791334935, 18.227010478955034, 9.076699904791807, 1.9475439330050184, 9.906199933375357, 12.783308428419774, 12.901903952270837, 11.737955406429116, 11.391615837121893, 8.220970443274325, 10.708618695219487, -11.342244708833594, 6.889987032416433, 4.339862788062318, 8.600278743927351, 16.170708473907087, 13.423854401785041, -9.431364860810966, 9.849112313584083, -7.047428533292061, 14.63777073766922, 19.633440684314806, 6.881940424599007, 3.3244135409595, 10.993336271742793, 8.973665254113543, 10.720223911079033, 10.620646734593713, 12.966542082433909, -15.449518588434692, 13.071471586456616, 22.514907674203286, 14.357166898501271, 10.520367431166113, 13.736256216979019, 9.72628315646298, 9.8024730709229, 8.239947046039479, 7.508501460536007, 23.845050996824664, 4.664893697903844, 14.740825114852337, 10.608458166508575, 33.98948176639505, 10.111952983062137, -14.03464411653597, 10.907975204110098, 21.80218411165108, 13.842930274654147, 15.660497758298071, 12.023652154350282, 25.75783468688686, 12.54514527348265, 15.214692034745521, 6.517824110107123, 8.491765024915974, 13.249668508391764, 0.3787514479815417, 17.109346394770263, -9.703994734020501, 13.287846776659421, 18.029811320208253, 10.279856115913129, -7.800732241441771, 13.195497083921163, -8.870324757412973, 11.48317459220743, -12.29135806748252, 11.144527714483523, 13.153615359475126, 12.846360532407369, 26.719742338467427, 10.186409875876784, -8.181241229433299, 6.838716819182861, 18.238678186472193, 15.700346233477081, 24.306549504713594, 14.056315690331477, 11.208988247136224, 10.21893730351109, 2.409622184344599, 14.935869955388508, -5.631611296761404, 8.378357371543288, 23.0708454182632, 11.049106594628466, -1.845605918984337, 12.87259462091961, 7.073192371294513, 15.166480898970969, 11.1229336908251, 12.715462783781481, 14.126063223986293, 13.789730736220108, 2.973347793468544, 7.770303404498624, 16.149342492624978, 8.127049280900684, 11.33772989211483, 10.117468900629857, -3.963734938095607, 11.580093078508535, 24.68322460391073, 13.559738460881274, 23.69286110626737, 13.317502232436604, 5.368970372393401, 13.715153643816985, 20.790433561807724, 9.947243477223681, -9.919312675298071, 15.633775789800575, 8.86238248816565, 13.882110684405783, 7.554807005282069, 17.745307408076837, 18.212050844527706, 13.302959977327598, 6.615716326767325, 14.225187901969269, 12.257753514222895, 12.067501357215342, 35.42696470262297, 12.294259195901947, 15.224136401134855, 9.13766573745497, 1.1127166664620995, 14.415077804381756, 17.986256401876656, 14.968699562141023, 7.4632586081414285, 11.870662302768427, 17.281946051721082, 7.548815533690731, 11.645157075939029, 9.178485588736468, 20.450350242514123, 15.505408719694412, -0.00870146572412267, 16.727435101215683, 17.845387149024944, 12.492602511045835, 8.796773499454954, 8.224714716892148, 1.2174169353483641, 9.123934628256988, 0.43784646068454247, 13.162436148264367, 15.145559122453106, 11.54554618746209, 11.48380470133105, 12.293964552570738, 8.491170826532503, 12.769339155275826, -9.735670089236145, 10.176789408783112, 17.628213409651874, 10.811897162634994, 16.01570554898498, 13.615077139438807, 13.309237121375528, 14.472999846319334, 15.19209003560657, 14.275119121310691, -16.37259755335697, 13.500442381792231, 11.645102391242427, 9.330804612816655, 21.0820541986098, 17.38417506970672, 15.87176490205182, 13.067933392592636, 12.009117255874774, 12.354126785551141, 23.302173629327104, 11.662094869437004, 2.139229763385342, 14.588664985961795, 17.895751489505557, 13.842251472994269, 2.772721062532941, 11.849462889769615, 2.4494404589179375, 19.270038059834366, 5.273589715810429, 13.156825586330806, 18.203373142627633, 15.735533323117835, 4.20863831243256, 10.770081007453886, -10.003315625657072, 12.477277467644958, 17.95058375950816, 12.616400897021547, 4.933073357741661, 9.158766984435584, 20.518359278705454, 10.502006744804897, 1.8999862970738959, 10.854455540149672, 26.325295201729084, 12.221528601340188, 24.9247010823301, 13.384639489861353, -6.4801925207381625, 12.32909728385415, 4.8092814473405525, 12.15899490294403, 18.04265122693702, 12.769576091247753, -5.191701326765324, 18.391826811168006, 17.196374719696337, 14.130855847749169, -0.2637348058127418, 10.200128715249711, 4.623486941351261, 12.574654893047205, -12.05277363192176, 11.108872867683926, 7.890043311672264, 13.052105647429912, 12.061300318718185, 11.16583345980637, 0.4939296714092629, 12.427453666443164, 12.721765520011386, 11.182417895734972, -0.5006490161940156, 13.213656842326753, 5.133392243249227, 11.525289168178938, -7.0119164071533415, 13.72177618312123, 17.436384196133545, 8.7977157237277, -5.322301294703443, 7.198559122859082, 12.166928279789401, 13.478140034176613, 14.769687473658315, 11.780626547044795, -10.618225162047246, 14.200592704152555, 9.236803679921817, 7.645083717477226, 0.766686784776879, 11.943591342168641, 20.94978472650588, 11.475956319801218, 12.412093643480427, 9.212018507557811, 13.452746759192664, 10.541589843119661, 8.140688586407524, 10.286280262935056, 8.039126017581399, 13.814613136845725, 1.9474777538638461, 13.204989330506232, 1.703685230614508, 10.942534924306212, 17.22258420221754, 15.78878637735679, 13.327701652973447, 11.377892438947283, 3.9585309691666626, 13.424722809751236, 23.27138565663162, 12.23639216822704, 12.36224682704677, 12.593633832971122, 15.46599739558634, 10.375589797101648, 0.9810967942186051, 9.68635518643566, 12.785545773702973, 14.847935515047748, 1.8369530829192517, 11.743258061950792, 24.26502686353658, 5.583938027455618, 7.456156816531928, 10.288225018581077, 17.180957583312964, 9.89763955731554, 8.29712295017805, 14.35114090954563, 34.28042554656943, 11.871620278793678, -10.813721143639818, 14.549995379887372, 4.48694133615588, 13.058115669259275, 24.18600358815399, 7.370061467607523, 3.947807861401278, 12.906787024060103, 18.744223552111443, 15.526503986477104, 26.11516534837956, 14.649429542637659, -20.291115016434958, 9.670919879034026, 6.659642229561456, 13.29887127533882, 12.447603012048962, 8.432565859441194, 17.244565736536046, 13.464320201305728, 2.224453007520391, 12.005820918513978, 18.049823917382636, 8.836865803326184, 3.274191118073088, 11.733202925055036, 16.914162620254004, 14.540431626194865, 21.821656091235255, 12.764337842834479, 16.917655788747567, 10.85526905303106, 9.15884674849694, 12.415697921236859, -6.641432206743944, 16.009531365503175, 8.925249724121205, 12.978656446386992, -1.295556873795182, 7.210666962893422, 10.830545986112053, 13.648164068828459, 16.843143206245838, 11.511055827014813, -9.91261257652223, 12.554716620148705, 9.043387065121617, 9.415080089991076, 27.22897962173734, 14.013759216035421, 12.947155812303151, 11.36430692581942, 23.64657778093418, 18.182349376859833, 33.76591900835489, 12.453982877649224, 4.685912597857598, 9.203427666908789, 5.205353685420819, 11.614850184377286, -6.6540623816458755, 11.732852401444214, 19.737784738437515, 9.689008968470961, 17.49128752480496, 11.473184967863578, 19.791170066924128, 9.797094285473653, 23.566900411814355, 13.629006802565836, 26.9683450597671, 13.943361242928125, 21.391867188466907, 11.706698409851217, 16.964542067012996, 16.429955810856494, 20.859309075359807, 11.977734946388875, 8.304795790751257, 15.520340212189376, 19.995413319125525, 10.388301844767586, 13.585767251670806, 7.992753097325101, 9.92909273820407, 14.805597044715867, 2.796969589956109, 10.229481060848581, -11.751039849759016, 8.364262844866884, 17.22953192490999, 11.123494706536937, 0.9121297882406867, 14.723720464748911, 25.63972365761523, 9.47917103746598, 22.928314872430015, 15.357690246376503, 6.114922899895725, 13.41785093583377, 13.976450802972163, 12.570768772094862, 18.482510629958632, 15.396698072760842, 33.90294407068481, 15.187846788857737, 9.098118485503715, 12.88938965356543, -10.633094349877263, 9.104964200448224, 10.214689616334578, 12.117747405125098, 7.427501947446513, 13.685693281186298, 24.303628887332373, 11.672648575297734, 17.27313617838241, 13.388531628969156, 15.872819850303012, 13.552967219633635, 26.760906883690353, 11.70876372184735, 3.103606147291649, 8.451855664979401, 21.262392511785396, 13.956837226894512, -13.363967033913513, 12.5594930479982, -0.7097930637955405, 13.007683073438603, 13.391466523165379, 16.964555509999435, 11.581761122491788, 13.267728982851946, 14.14229536318611, 10.277988868569294, 17.728411603552857, 18.050014434086176, -8.384134793537205, 11.072938291105022, 2.626436103711337, 14.779185627685772, 18.035152013561994, 9.787734281679565, -12.577656957311412, 11.238416471780981, 7.52514057500513, 10.666872429787238, 14.777097818895903, 11.663049161516193, 28.2935526066078, 12.93705192763729, 13.635018284583275, 10.436441258929374, 21.541847838931602, 13.819092194530915, 14.932829144815297, 15.467365748901551, 22.683380430083844, 13.288454737099892, 11.131316318478707, 5.20858350424829, -1.9426022129592662, 11.84442860954989, 8.412212427272737, 8.203317674231, 15.327759616746759, 12.729083812335535, -8.67002994084556, 13.000362435443781, 9.518117162087087, 15.644449113319308, 17.661398346144257, 14.685461122261179, -19.720186863187262, 6.0468450649760035, 24.73907872508753, 17.53613992542129, 8.84071662472175, 13.385378282432299, 14.487073518517295, 9.755942490995144, -1.5601804707478175, 9.14407972841207, 15.82292656579799, 15.412186399186087, 16.241097479335796, 7.351842589665436, 21.193727555844095, 10.84626781313587, 7.291030276903669, 11.670649053404787, 17.674525997526963, 11.892957920793162, 22.55511242959848, 11.385414565938637, 13.300024086855428, 10.80104101865469, 26.454911774370334, 8.50104967195525, 20.428124720745767, 10.198710365563846, -2.3496804413833665, 13.02733403910904, 2.671172912125349, 12.185591574802125, 20.392334348124564, 11.644994394560815, 26.021378300273184, 13.290229258107157, 23.133879490631394, 10.297241665969054, 12.67723567119547, 7.819124724566914, 8.823128016931497, 16.89718081990557, 3.1905728595907994, 10.149602913889593, 4.549740953725042, 12.336703157757139, -10.6466971147399, 11.950665352231756, 18.497313307035725, 10.989805948946447, 9.089916590582467, 11.47581455862704, 24.84325524200658, 13.477839315876185, 15.400151177211137, 5.993080204443831, 14.3328251503405, 7.938058947685103, 2.3693562842592275, 14.86470748113002, 6.664565676592844, 13.26295266068899, -3.9597917947874763, 12.217641015048677, 11.925850659563846, 15.698898184964204, 2.20878821928918, 16.161338809218176, 15.216616051736446, 15.919448244871338, -10.676189228648624, 12.78873542457998, 24.4074784418239, 11.301943729726275, 20.138909852503883, 9.763259151851027, 34.6166565659181, 10.241777921061434, 23.93321358417908, 11.545894428346738, 18.233820822357938, 12.660192155419061, 8.019829659159067, 14.829285342111826, 23.505013632656755, 13.098713792229915, 13.895921526593773, 8.419132478257195, 0.014948907540114131, 12.404029131407537, 9.362967968593955, 10.141131402482156, 16.962940030826967, 12.040334555859884, 25.308756135563225, 12.336993551957672, 19.984032416689338, 7.918821036980065, -21.24686400045423, 11.856158228860735, 15.661107802864684, 15.425376212991893, -9.780886907129874, 9.495822574087441, 32.14738875885123, 13.16652921953166, 11.964779317687071, 12.385628033586121, 11.84734089131963, 8.557100555684421, 3.5379092112000547, 12.357356261941078, -8.899147706835198, 5.374794595942708, 9.10793780070459, 13.497009735523033, 16.917256277932626, 11.337236586517452, 6.67697954851962, 15.159143067499617, 12.105464752600419, 9.97681162471304, 23.71657743203393, 15.380311073762982, 22.097464352686792, 10.776762190410388, 2.581455115508689, 11.563128210796318, 29.10751102803421, 7.865907415116615, 5.019550075016134, 12.184155886492738, 17.462930047849486, 13.980829836003513, 24.25439583275036, 10.541561698581615, 20.760091183502382, 9.898221279906796, 11.649894625076923, 13.270278802724485, -0.0033587140562709727, 10.373976987705635, 34.703215019471735, 8.322272610737564, -7.779279739111656, 17.701724958415817, 12.573245620015118, 8.422487542109064, 13.31795287081269, 9.215685068040298, -4.019005384784705, 11.678801011780033, 4.974890872859385, 14.048311183090112, 16.21574581432603, 16.61250865431078, 22.131639243854917, 12.22427539143374, 5.92020164903635, 11.223657122166705, 4.349535860163587, 7.8705435899205245, 7.806206086462039, 11.79069895630561, 16.07595870978026, 14.126411909141817, 12.441750931856113, 15.552332833410926, 5.761540787605618, 13.396647573024413, 9.677093656466733, 10.778103403355654, -12.81521435447752, 11.935465754050806, 9.819674198280877, 9.900406470405422, 15.812209131859008, 8.655062646817024, 1.7557528965024547, 10.79583342689718, 17.675209517485275, 10.204806122831672, 25.139175307734554, 12.756114466112495, -15.147932996465123, 16.070623062163897, 13.516019435782173, 12.59331167932138, 0.414405916073032, 13.048440743423294, 25.1511860842797, 14.992284760449005, 5.296828702386955, 17.469204015057045, 30.921459720885128, 9.954393304082597, -1.3774125590628377, 10.099937619470907, 14.051861785265498, 12.601003474118064, 25.891689068148292, 9.45139308789254, 24.641830990226662, 10.8536958598295, 9.77348673608201, 12.947170487886632, 4.969452889459749, 13.870324058921119, 23.537461784004286, 10.362995481261091, 20.103580472700507, 13.319222962062957, 24.6560990461927, 10.739742781989644, -11.7788597110096, 14.56908013499069, 4.150969847883089, 14.171215099819557, 13.738932576150036, 8.754303109548555, 20.234304309724102, 12.210611005291245, 5.836089254754777, 12.33417448316138, 21.850124838038653, 11.237413500697071, 25.148774400664244, 13.728320610258242, -0.7732828989568117, 12.459197491542703, 25.21332932026178, 10.574965929162374, 9.174272318427743, 12.553497995479038, -13.294593861529295, 10.962139067091053, 9.100015050834095, 9.67307688600736, 13.199113173465191, 13.061834726711632, -19.138485934210095, 14.857835059483772, 25.887470862722502, 15.649012689391018, 17.113445803970816, 9.093340998979944, 23.212645166455935, 13.905671820325725, 7.38303758775947, 10.439660662654886, 15.45151428237438, 8.336922195124895, 25.427776660803012, 10.47860762385336, -11.391167940677114, 14.214302687196806, 12.963386066768042, 12.808484430075106, 16.839412683496594, 9.50767962681175, 25.167221640122047, 11.251456648453097, 20.487688049557633, 10.602572206299673, 16.180393272996483, 15.007208035469962, 18.80712394178728, 10.896147181593358, 8.996218470540665, 11.287046488817419, -5.471139961380871, 11.493024023968829, 13.491001951712631, 15.568349415016929, 6.974192638297457, 13.822849783206815, 12.56203378273788, 11.373452420819165, 10.859395404091615, 16.408697634661873, 0.38921467729816994, 13.106307199264753, 17.787141211257918, 14.544734465158374, -9.372874634468165, 11.785780034186931, 15.997336361077476, 13.189126094562834, 17.044718488267502, 16.59454981671245, -1.1239359241830362, 11.283954606538199, 7.533412967358389, 11.061155810781413, 19.589956282880507, 16.405411318877565, 4.9897752304371075, 17.90312656383272, 20.531877281546073, 14.49497304144676, 22.452498730754677, 12.690119275706847, 8.502714476759351, 16.593082774735695, 13.06807241669267, 13.579266161999035, 11.634882195441323, 13.305040402558708, 13.377723091311124, 13.19392460956864, 20.17868010437888, 11.045621787005057, 5.948334576502278, 6.317940165895427, 1.5139001438620654]

Policy:
Name: UnstBigBumps
Number of parameters: 936
Parameters:
[-0.008952353021056928, 0.007984635272834545, -0.005740286007158939, 0.0075472547260436165, -0.003550123833965661, -0.024997352195186572, -0.015636463789237873, -0.0020453706040469547, 0.02759103643105606, -0.017116581170230925, 0.0025926691066966937, 0.00276516589512764, -0.004203930878056364, 0.015430048471606372, -0.00022743075700867594, 0.004580698247255206, 0.010277491742651223, 0.007903127871460578, -0.0050176358104961375, -0.028095023847112034, -0.0188312019911972, -0.02376240325132122, 0.011544400016710617, -0.0025902552512815273, -0.031202536899569314, 0.022756953599812196, -0.005286050343006117, 0.0015041452195578902, -0.025221398664825583, 0.015870693827304938, -0.009164745835536423, -0.0007785720286641734, 0.0057913598704336915, 0.0012647506180195173, 0.02963686613142476, 0.0032414488697598896, -0.0060440420075302944, 0.010293351319654927, 0.007138052385916584, -0.0038560318738376184, -0.004170577046521017, -0.034763409763571264, -0.013589810443376786, 0.01391319403377386, 0.016788550430922103, -0.017420168868777335, -0.016737539865450825, -0.03215317395387603, -0.03419812536068758, 0.013042160875741025, -0.02405968694207127, 0.04249849033091139, -0.02548085082713874, -0.009141713427468261, 0.015412148754161902, -0.0009087268191742771, 0.014067463917961076, -0.018252639084319257, -0.00018259001260352312, -0.015396622849228445, -0.011323603614445564, -0.007508003836387419, 0.012525391062791293, -0.015689438860653212, -0.02002874782148733, 0.009349359484480825, 0.00037030843236001684, 0.0015072441707526256, 0.00481887736979118, 0.016459016474688764, 0.008483249647762071, -0.02131749051474813, -0.0032218706067151117, -0.020985600576713965, 0.018557994238250487, 0.02051439153709339, 0.017968344777114745, 0.0031669763061763522, -0.0017157745619440466, -0.006364989138434312, 0.009473941880532242, -0.008853274337062391, 0.016006369264477183, 0.012195025474859058, 0.015268808151926386, -0.01608448949674833, -0.009327668075095072, -0.015350882032514333, 0.012196615438434399, 0.008286629591163103, -0.010086924018433524, 0.000706676617365958, 0.007680611770049374, 0.01823474191471315, -0.01335577083827417, -0.013588433160845419, 0.01508636418318151, -0.020797809528048036, -0.002479117351860516, 0.005622376879963539, 0.019074965827013884, 0.004356245492343693, 0.009078396502900304, -0.02621485609128347, -0.010385899554898718, -0.006847828697488276, -0.022137655566080973, 0.004094713566785549, -0.016652003463698606, 0.0079931309536409, -0.009521042090376644, 0.004794662349305412, 0.015591325254158345, 0.015126322778897224, -0.010579150343450926, 0.005738806731876416, 0.0050745581217299125, -0.010881309414834056, -0.01372204061791756, 0.003950610387786617, -0.02592510252018055, -0.00897117260795571, -0.0012155565594884855, 0.02426437964551816, -0.008085584521467853, -0.007153741675413204, -0.004953724563649376, -0.0002203166939411254, -0.017046382482610804, 0.015026618060125004, -0.0023108685287274457, -0.00572559030559055, 0.0018120580614010495, 0.007157764237499212, 0.01271567711636255, -0.0050926585848972816, 0.002541412293805493, -0.03750219537877589, -0.0012091255050050503, -0.02474623758513923, -0.006284299472222195, 0.011059049254892999, 0.0019515707804893321, 0.004125954823516976, 0.004160688477448091, 0.004676480019458069, -0.0011632435751011197, 0.013411975180644678, 0.019564175108498606, -0.0023672094259124875, 0.01735797512684399, 0.008830824752305504, -0.019081836996677058, -0.0036247104502324257, -0.01902650751478131, 0.02616636348076131, -0.0008864444044587167, -0.005858466200079811, -0.0005373289098037861, -0.011370653147440039, 0.003489588452659895, -0.005412019772288615, 0.011323074284791911, 0.021001174712224638, -0.011635374845665902, 0.010449565308113955, -0.0039495921526559, -0.010769112009612789, 0.0016670103698473, 0.012536826204188363, 0.008086081978329706, 0.01443339081610854, 0.008522752251204078, 0.007944169590409014, 0.002928853599036412, -0.0038665389077119643, -0.014347806102951386, -0.02551256587457989, -0.000563043879473632, 0.012590783369444376, -0.018234950043454972, 0.005683425885346063, 0.0006023043204154705, -0.0006442472365177526, -0.010157986375067853, -0.027427420870116237, -0.004816608842230184, -0.03569045786036321, 0.003983777598500156, 0.003609659494288099, -0.00697485043490261, 0.017695002595463416, 0.017838325046481453, -0.0007443813259276792, -0.0019075524798603102, -0.010952215711599031, -0.01936798198169139, -0.007113205771339106, 0.006898146825624109, -0.006607730360337022, 0.001668774817378057, 0.013729930264400702, 0.010712971618527242, -0.023196827753545066, 0.004316532008011935, 0.022058473068453165, -0.0190791256632286, 0.006824639747473805, 0.0125899550320963, -0.006827493615975215, 0.01750900990583821, -0.02097907881020798, 0.017563569226409486, -0.0005762466066628134, -0.0010383281849605088, 0.008351627770834367, -0.008071620524593336, 0.009171955673864187, 0.0048633907277289105, 0.017629202883490486, 0.0009656338452726923, 0.01147526476790778, 0.01819724397605717, -0.010760114974331011, 0.0061838234314783025, -0.011550801284031093, -0.013250829229989155, -0.012125009976050337, -0.0036678612071827862, -0.005174118954089265, -0.0155855300429321, -0.004833769829336848, 0.0028634072643042925, -0.015286196376843319, -0.016025937900313293, 0.009936942087982724, -0.015671853206217796, 0.0014429773472635636, -0.028815648657854312, 0.004338699595532059, 0.010196656690167982, 0.007310655227023975, 0.000928582461827316, 0.0018656422256032874, 0.023304774620120306, -0.002551152966834001, -0.008369392168276323, 0.0005861757589033957, -0.01991673965604084, -0.014891488205817961, 0.009348222364846101, -0.01092781112632498, -0.00040266336458446563, 0.0009035724957729896, 0.0033042358300933365, -0.006117763295260873, -0.022492002087760834, 0.009350007932071556, 0.02345285989803523, 0.007208008133582799, -0.03690139200591751, 0.026193582762152393, -0.0038633728049586725, -0.00583031257528847, -0.010887243514536918, -0.01789104594811765, 0.011406163595550566, 0.0071635338680665975, 0.013453004071763789, 0.0011473824638276774, 0.008551000554638723, 0.02456476664197119, -0.040396397401008595, 0.0021633575844704233, 0.0018070421074519113, 0.0038547995072543595, -0.005252314913166421, 0.018910744617160833, 0.006623930459018019, 0.00989338430107451, -0.013056768673555524, -0.01241618196573047, 0.028463442527210565, -0.006563316626884982, 0.017166249643299176, -0.0037418703233836163, 0.00372729374770868, -0.013517146809108508, -0.008982049281092993, 0.017063101161069332, -0.010200984525480081, -0.001016772230157227, -0.01142084329939874, -0.002044792176920802, 0.015727288141820416, -0.021836097562828245, 0.00540220264478184, -0.02007194567269622, 0.022382539420851395, 0.016379316404890026, 0.034275626231163564, -0.00022465934252297018, -0.0038258009758202647, -0.0047953414085887235, -0.019633131967470754, -0.00826316295461102, -0.0466008331272766, 0.00996128837685475, 0.015270307454765366, 0.012304175741006626, 0.006733956995103709, 0.026868571703194573, -0.011215708123208544, 0.004294745961832736, 0.0020511111706188728, -0.015743760250321304, -0.0057855891877250185, -0.0016456634739890775, -0.01635267629795622, 0.0034001094837194435, -0.019049893601328163, -0.014473953556674822, -0.013966491863635739, 0.010018236368788638, 0.0005646164806621013, 0.00015222484744411563, 0.006441301690561919, 0.0018244739481966638, 0.0025204465422101066, -0.0011040683714243318, -0.010660017830956381, 0.009974350005023854, -0.01763616102789112, -0.017840641888193346, 0.0069263474869662575, -0.0024841794559490597, 0.014351502781446493, -0.006043678665030455, 0.01892787659890796, 0.0020606664214146016, 0.0017602436109614775, 0.014310216937890112, 0.014504104875859972, -0.0008658446001379519, -0.019050368864471704, -0.005584219551560127, -0.005144303913941147, -0.007771990166079203, 0.002764448621846201, 0.014388638396917858, 0.0006451487183696096, 0.009777406255554203, 0.02494501976698901, 0.006570384047347645, -0.007503029607157914, 0.002553690648394302, -0.0045797230566410425, -0.02076596359601578, 0.008022946518383874, 0.008165889811886085, -0.00017396188561918032, 0.007295852814235917, -0.018740174288770763, -0.01848917089025494, -0.004535765164572308, 0.005017928455363054, 0.007271024304566919, 0.011976206049529778, 0.029899019553040505, -0.009693524299278262, -0.036521246422658395, -0.0018904198683529396, -0.019540216023793914, -0.005931935747113049, 0.019490031654217293, 0.012361562454265394, -0.012989166760934763, 0.016401446244141474, 0.0013363157682873164, 0.012711709366492678, 0.010040435647955065, -0.024875809135070592, 0.016255084607153473, 0.010448126599287143, -0.0063036242189185455, 0.02038935963461088, 0.0038325183561911053, -0.022150614372276844, 0.012192104217043007, 0.006525287913654738, 0.01138189980432592, -0.00890445809551506, 0.04167765883855969, -0.027066352625331074, 0.013021033403256076, -0.007324832870480938, -0.01322182468247233, 0.012334501029910412, 0.0016311894748319994, -0.005486718304605048, -0.018982798460951453, -0.00580162822772529, 0.010363393653333663, -0.015305432643491112, -0.005247171382376733, -0.011850585011528659, 0.009878013990349613, 0.021162092706899123, 0.006564671196601512, -0.013112459865648676, 0.0027351595261301516, 0.016066887255964616, -0.01866697869419024, -0.031952784466511175, -0.012220286410503736, 0.0027172972000760994, 0.003711062211508701, 0.006962929632894126, -0.002104426501941408, -0.015138344183239637, 0.016004039620737466, 0.02354337098810426, -0.003664562883688646, 0.004629503327779859, 0.03199601662986847, -0.00360356801272714, -0.017681873989962214, -0.003203992898080798, -0.007201219057307477, 0.004917505965804565, -0.01618786323025162, -0.006251983674058802, -0.013612875832810484, -0.011830598392922647, 0.015096027781117358, 0.01215274114675828, 0.024756285579213656, -0.015354126845658641, 0.008285204796650247, 0.013394677729185159, 0.0033515947871547713, 0.016693322535727615, -0.004704293877335781, -0.005084885343451202, -0.005390997699677568, 0.004314825312043095, -0.022461143463392615, 0.009043700995264865, -0.004422825907295192, -0.0018883126875405402, 0.008914825425247588, 0.0063261257704466355, -0.0026151952875335016, 0.019572078366987773, -0.018447875781143246, -0.0029537829554478253, -0.021613859749282316, 0.002976362812968395, 0.0025093936212301346, 0.010694956891550153, -0.006653454134790483, -0.006245616894578437, -0.017268086911503763, -0.014928114095878436, -0.013797439652772487, 0.02869130146370963, -0.005053065595220392, -0.033333576980202, 0.01460981704059454, 0.0018059238467147633, -0.001745649002689369, -0.009743105914685557, 0.0007143030746525282, 0.0019870202900659677, -0.006162004254070787, -0.010553065160975513, -0.0006384418712425258, 0.013000844427717923, -0.013911931624986844, -0.001640695366105577, -0.004162085831584094, 0.005046282309513071, 0.031628340677250844, -0.00020461932744402433, 0.033267460585262365, 4.251944309164608e-05, -0.006409241181638771, 0.004931262837326227, -0.02440411493526197, 5.4181812788817975e-05, -0.024595737736511268, -0.018210419255860942, -0.011439993119044244, -0.0021687689437797984, -0.018444522160874322, -0.015941949381795408, -0.008165510983203015, -0.0014903457907233166, 0.022821170234301854, -0.019176818548039185, -0.02336388954098313, 0.0021911242477907693, -0.004495828391268818, 0.015422603236364683, -0.005821481517788913, -6.829892319167326e-05, -0.0175280233518078, 0.038914469158599314, -0.012105259916506893, -0.01978171109334247, 0.03022443492527793, -0.02992235738522981, 0.016538363143182952, -0.005785384189704891, -9.864846798795623e-05, -0.004284692222779651, -0.006219026894156342, -0.004459537451401774, -0.004373940831537606, -0.010083979020569126, -0.0017829735875337404, -0.0031495791926242035, 0.010408240652672755, 0.015608218906903231, -0.00046166857156760795, 0.020895100911538428, -0.014983549680948706, 0.005311419364977842, -0.01385283802635144, 0.001049247614117682, -0.018950076282585226, -0.013741540742486473, 0.018494634147453903, -0.00612347402816277, 0.008735388764378953, 0.0028044262592774884, -0.014206502419579018, -0.0054765793031989075, -0.005904029913624868, 0.003133680493723713, 0.013526958711851344, -0.014691911648612213, -0.008879760444577013, -0.011845724302792187, 0.007418499965358049, 0.008448614632238357, -0.011420198626420663, 0.004961713421389873, 0.008859860642305737, -0.019811750135725236, -0.00956539848388, -0.023670265198766055, 0.0051053628184206225, 0.010676363680934924, 0.008014433767900108, 0.021245220788063325, -0.011995876410896335, -0.009821300650883637, 0.019898307378142566, -0.004039938561714825, -0.012309960358517866, 0.013943507455590486, 0.0022898916114652444, 0.013522147261946177, -0.004278228789351504, -0.017539820960874284, -0.030263249781345848, -0.0012913249758045864, -0.009035611273695223, 0.0136119882017756, 0.009048494368420243, 0.013823116409151459, -0.0224764828969133, -0.01800899407338142, -0.010513149707669433, 0.022398240044485162, 0.010340522382237403, 0.004195804393949276, -0.018520038877266883, 0.004894553362379747, -1.8568187790919804e-05, -0.005103177258914239, -0.0066726093008424, 0.005089753482319041, -0.008574506395699046, 0.008187037059816821, -0.022927963389618243, 0.0018757064060280374, 0.003547765832229526, 0.009549308061973226, 0.007939967532781717, 0.014270265123172497, 0.0056786039564057905, -0.01155659351383038, 0.016183058344279945, 0.02255434715614441, 0.013792140157445273, -0.02418122516852482, -0.0032084816432118766, 0.015207360384928531, 0.019632111495121035, 0.014367903096840119, 0.015196010246256046, 0.009437169090761368, -0.004550841320349878, 0.02650985002313558, 0.011626260855461843, 0.004855980015980841, 0.006194881175382427, -0.009328105286513571, -0.01657130634764512, 0.003246104686461148, -0.004141302196434478, 0.0038952728238080482, 0.006361321371653948, 0.01957698092350346, -0.008540503852486864, 0.0015010221709615527, -0.010192852898048093, -0.014353506566202772, -0.003461767566422913, -0.014187413134610133, -0.013741737544067116, -0.0010604289431945708, 0.012688586107075125, -0.010419602700442286, -0.003912954305866032, 0.018321210536892268, -0.007968644958486946, -0.014118667996829815, -0.002186511768218051, -0.009648758700253375, -0.0267968537183492, 0.023739033856879414, -0.0030759467856891487, -0.0073467695595752554, 0.005867934298069996, -0.006852408652433845, 0.021726156222697638, -0.02159263848725267, -0.00760799788672795, -0.01724392041465044, 0.020086389972100868, -0.007768567953174034, -0.006444710959937525, -0.012736846453687676, 0.015713762556669463, 0.0069981928775325174, -0.010864918596753481, -0.010587717223539496, 0.0254738218656774, 0.0066648678719123736, 0.03638733077194604, 0.007409863526526489, -0.024083443788465744, 0.01388028874188418, -0.014270961618770409, 0.008086520910784016, -0.0048582340140829496, -0.004738700629182122, -0.0012722721655492864, -0.019343526242403344, -0.006559922854549815, 0.010560258351775664, -0.011592786463102241, 0.019027663110000467, -0.012733942189296162, 0.01442588888377307, -0.017228332094259332, -0.0005138966388610633, -0.013647591427728365, -0.015431817054918256, -0.015061083331603484, 0.007383507561650377, -0.010129132672868588, 0.0014992955776672763, -0.006512411802644852, 0.004872581483016965, -0.004947913741174705, 0.016654643489822284, 0.008054133280840096, 0.014758497289530003, 0.005851203170669317, 0.011944678898538426, -0.03438255120014964, 0.010783555227933977, -0.011999643718113242, 0.0031969439274365237, -0.013546293365921142, 0.009619152299041877, 0.016427490264237937, 0.004111347857490343, -0.006124213092947831, 0.009469975323630902, 0.0050668502397369425, -0.013070547072501498, 0.005951641414753617, -0.001061585264915009, 0.008660481647015252, 0.022579286206193077, -0.015602659174823718, -0.024396732383118094, 0.0033527760503313385, 0.008115941516102322, -0.0008698403115963038, -0.023502848538179192, -0.006995148169975738, 0.006729569319067936, 0.008860410794945935, 0.015529384200668593, 0.00159417990929254, 0.015727924806706532, -0.003549058020817918, -0.010795323722378186, 0.007341613296080363, -0.002620150235391118, 0.004468282838593857, -0.01738061214725188, 0.003033010092976325, 0.006083399604090838, 0.0005995104519057715, 0.024893294295194476, -0.004653496393061772, -0.03079283503722532, 0.004057409982123492, -0.013494704824994189, 0.010105318070897604, -0.04211831479603325, 0.015926247846344378, 0.0043515592186274855, 0.002333578385417896, 0.009138906618437234, 0.009016237487703312, -0.006224686231446331, -0.007631271240090167, -0.011770383455380217, -0.019653267906353505, -0.019989681740657354, -0.027864081646637937, -0.011602637106075375, -0.00951922470086268, 0.02243225363060786, -0.003424632399065684, -0.009240523917812925, -0.01002801289392157, -0.025364548908524225, 0.011099138331108049, -0.021255685760838774, -0.020482155109260346, 0.010283282157688289, -0.010935626204334716, 0.020202969075994042, -0.004028568044776956, 0.0058619460109213305, -0.02398321578795109, -0.02284651371957947, 0.0008986700947869663, -0.010799848050443652, 0.018139265805927306, -0.025778762471503378, 0.03632971598158002, -0.011779053103162402, 0.00875071202452095, -0.01115214104414627, 0.022171653350414038, 0.0019892139688757154, 0.010603069585411507, -0.00127232491469802, -0.004032353944526674, 0.02146513578261891, -0.007792656713963901, 0.002291698988292801, -0.004332198407142942, 0.013999212284309155, -0.018683833543012344, 0.021102250361188013, 0.016697797396665517, 0.007429349799636487, -0.005393381991206292, 0.022442491602407154, -0.02944313730030735, 4.968061350032202e-05, -0.014854630037831251, 0.008280880180201447, -0.004348294322049984, 0.0014829198149088306, 0.0018278884025800784, -0.0005755738232913959, 0.015741458541313934, 0.01511334030214501, -0.012260637014284462, 0.030347349528619894, 0.006522769906748007, 0.0002531103963873531, 0.007261042317903107, 0.0012136334804350296, -0.009209768060294289, 0.006992450868592743, -0.01738859718643094, 0.0020408519721025983, -0.01164778943951947, -0.022557060527320597, -0.0013860819734265552, -0.033942517175743495, -0.006093878043563271, -0.011858721570685286, -0.014338847402467929, 0.0004990465312305954, -0.0161990729079685, 0.008150161722553582, -0.007809041881396046, -0.022536726541066848, 0.020502103256128834, 0.005311280366709948, -0.0032704286075680355, -0.00369699196412929, 0.025852998857386518, 0.0012012953219699457, -0.010649519687094905, -0.002201871811757906, -0.000672250842875215, -0.005340820470334796, -0.009397330535674929, -0.012141868589949822, 0.0077986418678965995, 0.02134739037576225, -0.005779235540856089, -0.006986827159646475, -0.007740952530661846, 0.019391194286481995, -0.022477524894288215, 0.00789900396518226, 0.014254376915134235, -0.007692874742378943, 0.005717917026728067, 0.006860988545008504, 0.0107906778409946, -0.030555663630532366, 0.009902900381437969, 0.026287426331562256, -0.010713672548369513, 0.0029418665326674674, 0.011791836603017936, -0.023727297949900916, -0.016567819325287905, -0.017897100234893635, 0.00681992261053738, 0.025036895956843407, -0.007987260630240535, 0.012032835585328958, -0.01908168640683937, -0.021338773717965855, -0.015264634551010176, 0.00044271696904129524, -0.003767361353996171, 0.010570344100996967, 0.008620304377171456, -0.0014700981292187973, -0.03185188639471329, -0.000439373696323073, 0.010467226369079154, -0.008422015935995357, -0.01782529641104911, -0.009221055705729855, 0.024050522805843636, 0.00011407230712894833, 0.004998360702669002, -0.0027192809736244616, 0.013472137771570924, 0.008782226471008047, -0.015383177497708476, 0.00202902144742323, -0.001962527163089779, -0.008625797927799154, 0.003703328979786753, -0.002206256613547232, 0.005880674332459051, 0.01373735815630787, -0.006500520837335604, -0.008469121506177292, 0.006217731746383192, 0.006023074967474712, 0.005571128265907895, -0.01702325786501424, -0.023880056814509845, 0.01225987957562806, -0.004601944461426716, 0.022639467433944457, 0.006544243742423796, 0.005426768384031939, -0.0034363373635230253, 0.012899812738320426, -0.018054907170031928, -0.0016853365991572377, -0.001705013561297645, -0.006578364605865962, 0.024792665782523374, -0.0028853747099240284, 0.026035589876407434, -0.015952305808027954, 0.024615507506869496, 0.001615107278577371, 0.006346368701696133, -0.021302973078337076, -0.007302232899883702, -0.022581974284663592, -0.005129564147190339, 0.010257201961173176, 0.02409461567609245, 0.01408130371079119, 0.012297715571785231, -0.011048399455328548, -0.0003741024710659545, -0.005607373826940661, -0.004237206367471528, 0.006049318667585604, 0.002771774261748839, 0.023114526076959616, -0.015438477629661529, -0.011918548991029685, -0.00012991991742123394, -0.009472738858288669, -0.0023716363519008824, -0.01861422010481578, 0.002229992999765826, 0.0066754919937560995, -0.0074740470545059026, -0.0017440973131576042, -0.02627305932639813, -0.008687642471269283, 0.006367255505471273, 0.007834773146700686, -0.008316983375800975, -0.013881719666009271, 0.005153265243025226, 0.021017066678703043]

